Table Transformer: slice a table with a slice point on a time column — tt_time_slice • pointblank
…
Let's use the game_revenue dataset, included in the pointblank package,
as the input table for the first demo. It has entries in the first 21 days of
2015 and we'll elect to get all of the records where the time values are
strictly for the first 15 days of 2015. The keep argument has a default of
"left" so all rows where the time column is less than
"2015-01-16 00:00:00" will be kept.

tt_time_slice(
  tbl = game_revenue,
  time_column = "time",
  slice_point = "2015-01-16"
)

## # A tibble: 1,208 × 11
##    player_id       session_id  session_start       time                item_type
##    <chr>           <chr>       <dttm>              <dttm>              <chr>    
##  1 ECPANOIXLZHF896 ECPANOIXLZ… 2015-01-01 01:31:03 2015-01-01 01:31:27 iap      
##  2 ECPANOIXLZHF896 ECPANOIXLZ… 2015-01-01 01:31:03 2015-01-01 01:36:57 iap      
##  3 ECPANOIXLZHF896 ECPANOIXLZ… 2015-01-01 01:31:03 2015-01-01 01:37:45 iap      
##  4 ECPANOIXLZHF896 ECPANOIXLZ… 2015-01-01 01:31:03 2015-01-01 01:42:33 ad       
##  5 ECPANOIXLZHF896 ECPANOIXLZ… 2015-01-01 11:50:02 2015-01-01 11:55:20 ad       
##  6 ECPANOIXLZHF896 ECPANOIXLZ… 2015-01-01 11:50:02 2015-01-01 12:08:56 ad       
##  7 ECPANOIXLZHF896 ECPANOIXLZ… 2015-01-01 11:50:02 2015-01-01 12:14:08 ad       
##  8 ECPANOIXLZHF896 ECPANOIXLZ… 2015-01-01 11:50:02 2015-01-01 12:21:44 ad       
##  9 ECPANOIXLZHF896 ECPANOIXLZ… 2015-01-01 11:50:02 2015-01-01 12:24:20 ad       
## 10 FXWUORGYNJAE271 FXWUORGYNJ… 2015-01-01 15:17:18 2015-01-01 15:19:36 ad       
## # … with 1,198 more rows, and 6 more variables: item_name <chr>,
## #   item_revenue <dbl>, session_duration <dbl>, start_day <date>,
## #   acquisition <chr>, country <chr>
…
