…
## Examples

Let's use the `game_revenue` dataset, included in the **pointblank**
package, as the input table for the first demo. It has entries in the
first 21 days of 2015 and we'll move all of the date and date-time
values to the beginning of 2021 with the `tt_time_shift()` function and
the `"6y"` `time_shift` specification.

    tt_time_shift(
      tbl = game_revenue,
      time_shift = "6y"
    )
    #> # A tibble: 2,000 x 11
    #>    player_id       session_id  session_start       time                item_type
    #>    <chr>           <chr>       <dttm>              <dttm>              <chr>
    #>  1 ECPANOIXLZHF896 ECPANOIXLZ~ 2021-01-01 01:31:03 2021-01-01 01:31:27 iap
    #>  2 ECPANOIXLZHF896 ECPANOIXLZ~ 2021-01-01 01:31:03 2021-01-01 01:36:57 iap
    #>  3 ECPANOIXLZHF896 ECPANOIXLZ~ 2021-01-01 01:31:03 2021-01-01 01:37:45 iap
    #>  4 ECPANOIXLZHF896 ECPANOIXLZ~ 2021-01-01 01:31:03 2021-01-01 01:42:33 ad
    #>  5 ECPANOIXLZHF896 ECPANOIXLZ~ 2021-01-01 11:50:02 2021-01-01 11:55:20 ad
    #>  6 ECPANOIXLZHF896 ECPANOIXLZ~ 2021-01-01 11:50:02 2021-01-01 12:08:56 ad
    #>  7 ECPANOIXLZHF896 ECPANOIXLZ~ 2021-01-01 11:50:02 2021-01-01 12:14:08 ad
    #>  8 ECPANOIXLZHF896 ECPANOIXLZ~ 2021-01-01 11:50:02 2021-01-01 12:21:44 ad
    #>  9 ECPANOIXLZHF896 ECPANOIXLZ~ 2021-01-01 11:50:02 2021-01-01 12:24:20 ad
    #> 10 FXWUORGYNJAE271 FXWUORGYNJ~ 2021-01-01 15:17:18 2021-01-01 15:19:36 ad
    #> # i 1,990 more rows
    #> # i 6 more variables: item_name <chr>, item_revenue <dbl>,
    #> #   session_duration <dbl>, start_day <date>, acquisition <chr>, country <chr>
…
